%YAML 1.1
%TAG !u! tag:unity3d.com,2011:
--- !u!1045 &1
EditorBuildSettings:
  m_ObjectHideFlags: 0
  serializedVersion: 2
  m_Scenes:
  - enabled: 1
    path: Assets/scenes/example_0.unity
  - enabled: 1
    path: Assets/scenes/example_1.unity
  - enabled: 1
    path: Assets/scenes/example_2.unity
  - enabled: 1
    path: Assets/scenes/example_3.unity
  - enabled: 1
    path: Assets/scenes/example_4.unity
  - enabled: 1
    path: Assets/scenes/example_5.unity
  - enabled: 1
    path: Assets/scenes/example_6.unity
  - enabled: 1
    path: Assets/scenes/example_7.unity
